{
  "crash_reason": {
    "id": 30457170,
    "app_id": 129442,
    "created_at": "2015-03-17T10:45:07Z",
    "updated_at": "2015-04-22T05:11:28Z",
    "status": 1,
    "reason": "java.lang.RuntimeException: Unable to start activity ComponentInfo{com.epocrates.stm/com.epocrates.stm.ui.MsgThreadActivity}: android.view.InflateException: Binary XML file line #75: Error inflating class fragment",
    "last_crash_at": "2015-04-22T05:11:28Z",
    "exception_type": null,
    "fixed": true,
    "app_version_id": 2,
    "bundle_version": "220",
    "bundle_short_version": "15.4",
    "number_of_crashes": 59,
    "grouping_hash": "aa4c15debbdf9bf0ac3361ec21dc4b88f25d2afc",
    "grouping_type": 1,
    "method": "onCreate",
    "file": "MsgThreadActivity.java",
    "class": "ui.MsgThreadActivity",
    "line": "341"
  },
  "crashes": [
    {
      "id": 2929654279,
      "app_id": 129442,
      "crash_reason_id": 30457170,
      "created_at": "2015-03-17T10:45:05Z",
      "updated_at": "2015-03-17T10:45:11Z",
      "oem": "samsung",
      "model": "SM-G900H",
      "os_version": "4.4.2",
      "jail_break": null,
      "contact_string": "",
      "user_string": "",
      "has_log": true,
      "has_description": true,
      "app_version_id": 2,
      "bundle_version": "220",
      "bundle_short_version": "15.4"
    },
    {
      "id": 2935020914,
      "app_id": 129442,
      "crash_reason_id": 30457170,
      "created_at": "2015-03-18T05:57:24Z",
      "updated_at": "2015-03-18T05:57:24Z",
      "oem": "HTC",
      "model": "HTC One dual sim",
      "os_version": "4.2.2",
      "jail_break": null,
      "contact_string": "",
      "user_string": "",
      "has_log": true,
      "has_description": true,
      "app_version_id": 2,
      "bundle_version": "220",
      "bundle_short_version": "15.4"
    },
    {
      "id": 2935032450,
      "app_id": 129442,
      "crash_reason_id": 30457170,
      "created_at": "2015-03-18T06:00:18Z",
      "updated_at": "2015-03-18T06:00:19Z",
      "oem": "HTC",
      "model": "HTC One dual sim",
      "os_version": "4.2.2",
      "jail_break": null,
      "contact_string": "",
      "user_string": "",
      "has_log": true,
      "has_description": true,
      "app_version_id": 2,
      "bundle_version": "220",
      "bundle_short_version": "15.4"
    },
    {
      "id": 2935148899,
      "app_id": 129442,
      "crash_reason_id": 30457170,
      "created_at": "2015-03-18T06:29:25Z",
      "updated_at": "2015-03-18T06:29:26Z",
      "oem": "LGE",
      "model": "Nexus 5",
      "os_version": "5.0",
      "jail_break": null,
      "contact_string": "",
      "user_string": "",
      "has_log": true,
      "has_description": true,
      "app_version_id": 2,
      "bundle_version": "220",
      "bundle_short_version": "15.4"
    },
    {
      "id": 2969125486,
      "app_id": 129442,
      "crash_reason_id": 30457170,
      "created_at": "2015-03-23T09:47:01Z",
      "updated_at": "2015-03-23T09:47:03Z",
      "oem": "LGE",
      "model": "Nexus 4",
      "os_version": "5.0.1",
      "jail_break": null,
      "contact_string": "",
      "user_string": "",
      "has_log": true,
      "has_description": true,
      "app_version_id": 2,
      "bundle_version": "220",
      "bundle_short_version": "15.4"
    },
    {
      "id": 2973631323,
      "app_id": 129442,
      "crash_reason_id": 30457170,
      "created_at": "2015-03-24T01:21:14Z",
      "updated_at": "2015-03-24T01:21:17Z",
      "oem": "HTC",
      "model": "HTC One dual sim",
      "os_version": "4.2.2",
      "jail_break": null,
      "contact_string": "",
      "user_string": "",
      "has_log": true,
      "has_description": true,
      "app_version_id": 2,
      "bundle_version": "220",
      "bundle_short_version": "15.4"
    },
    {
      "id": 2973654835,
      "app_id": 129442,
      "crash_reason_id": 30457170,
      "created_at": "2015-03-24T01:27:11Z",
      "updated_at": "2015-03-24T01:27:11Z",
      "oem": "HTC",
      "model": "HTC One dual sim",
      "os_version": "4.2.2",
      "jail_break": null,
      "contact_string": "",
      "user_string": "",
      "has_log": true,
      "has_description": true,
      "app_version_id": 2,
      "bundle_version": "220",
      "bundle_short_version": "15.4"
    },
    {
      "id": 2973674732,
      "app_id": 129442,
      "crash_reason_id": 30457170,
      "created_at": "2015-03-24T01:32:03Z",
      "updated_at": "2015-03-24T01:32:05Z",
      "oem": "HTC",
      "model": "HTC One dual sim",
      "os_version": "4.2.2",
      "jail_break": null,
      "contact_string": "",
      "user_string": "",
      "has_log": true,
      "has_description": true,
      "app_version_id": 2,
      "bundle_version": "220",
      "bundle_short_version": "15.4"
    },
    {
      "id": 2973694629,
      "app_id": 129442,
      "crash_reason_id": 30457170,
      "created_at": "2015-03-24T01:36:57Z",
      "updated_at": "2015-03-24T01:37:00Z",
      "oem": "HTC",
      "model": "HTC One dual sim",
      "os_version": "4.2.2",
      "jail_break": null,
      "contact_string": "",
      "user_string": "",
      "has_log": true,
      "has_description": true,
      "app_version_id": 2,
      "bundle_version": "220",
      "bundle_short_version": "15.4"
    },
    {
      "id": 2974011616,
      "app_id": 129442,
      "crash_reason_id": 30457170,
      "created_at": "2015-03-24T02:57:15Z",
      "updated_at": "2015-03-24T02:57:15Z",
      "oem": "HTC",
      "model": "HTC One dual sim",
      "os_version": "4.2.2",
      "jail_break": null,
      "contact_string": "",
      "user_string": "",
      "has_log": true,
      "has_description": true,
      "app_version_id": 2,
      "bundle_version": "220",
      "bundle_short_version": "15.4"
    },
    {
      "id": 2974022460,
      "app_id": 129442,
      "crash_reason_id": 30457170,
      "created_at": "2015-03-24T03:00:03Z",
      "updated_at": "2015-03-24T03:00:03Z",
      "oem": "HTC",
      "model": "HTC One dual sim",
      "os_version": "4.2.2",
      "jail_break": null,
      "contact_string": "",
      "user_string": "",
      "has_log": true,
      "has_description": true,
      "app_version_id": 2,
      "bundle_version": "220",
      "bundle_short_version": "15.4"
    },
    {
      "id": 2974033318,
      "app_id": 129442,
      "crash_reason_id": 30457170,
      "created_at": "2015-03-24T03:02:51Z",
      "updated_at": "2015-03-24T03:02:52Z",
      "oem": "HTC",
      "model": "HTC One dual sim",
      "os_version": "4.2.2",
      "jail_break": null,
      "contact_string": "",
      "user_string": "",
      "has_log": true,
      "has_description": true,
      "app_version_id": 2,
      "bundle_version": "220",
      "bundle_short_version": "15.4"
    },
    {
      "id": 2974045337,
      "app_id": 129442,
      "crash_reason_id": 30457170,
      "created_at": "2015-03-24T03:05:55Z",
      "updated_at": "2015-03-24T03:05:57Z",
      "oem": "HTC",
      "model": "HTC One dual sim",
      "os_version": "4.2.2",
      "jail_break": null,
      "contact_string": "",
      "user_string": "",
      "has_log": true,
      "has_description": true,
      "app_version_id": 2,
      "bundle_version": "220",
      "bundle_short_version": "15.4"
    },
    {
      "id": 2974217947,
      "app_id": 129442,
      "crash_reason_id": 30457170,
      "created_at": "2015-03-24T03:50:51Z",
      "updated_at": "2015-03-24T03:50:54Z",
      "oem": "HTC",
      "model": "HTC One dual sim",
      "os_version": "4.2.2",
      "jail_break": null,
      "contact_string": "",
      "user_string": "",
      "has_log": true,
      "has_description": true,
      "app_version_id": 2,
      "bundle_version": "220",
      "bundle_short_version": "15.4"
    },
    {
      "id": 2974229380,
      "app_id": 129442,
      "crash_reason_id": 30457170,
      "created_at": "2015-03-24T03:53:48Z",
      "updated_at": "2015-03-24T03:53:50Z",
      "oem": "HTC",
      "model": "HTC One dual sim",
      "os_version": "4.2.2",
      "jail_break": null,
      "contact_string": "",
      "user_string": "",
      "has_log": true,
      "has_description": true,
      "app_version_id": 2,
      "bundle_version": "220",
      "bundle_short_version": "15.4"
    },
    {
      "id": 2974239619,
      "app_id": 129442,
      "crash_reason_id": 30457170,
      "created_at": "2015-03-24T03:56:28Z",
      "updated_at": "2015-03-24T03:56:31Z",
      "oem": "HTC",
      "model": "HTC One dual sim",
      "os_version": "4.2.2",
      "jail_break": null,
      "contact_string": "",
      "user_string": "",
      "has_log": true,
      "has_description": true,
      "app_version_id": 2,
      "bundle_version": "220",
      "bundle_short_version": "15.4"
    },
    {
      "id": 2974249999,
      "app_id": 129442,
      "crash_reason_id": 30457170,
      "created_at": "2015-03-24T03:59:15Z",
      "updated_at": "2015-03-24T03:59:16Z",
      "oem": "HTC",
      "model": "HTC One dual sim",
      "os_version": "4.2.2",
      "jail_break": null,
      "contact_string": "",
      "user_string": "",
      "has_log": true,
      "has_description": true,
      "app_version_id": 2,
      "bundle_version": "220",
      "bundle_short_version": "15.4"
    },
    {
      "id": 2981621771,
      "app_id": 129442,
      "crash_reason_id": 30457170,
      "created_at": "2015-03-25T07:36:18Z",
      "updated_at": "2015-03-25T07:36:19Z",
      "oem": "samsung",
      "model": "SM-G900H",
      "os_version": "4.4.2",
      "jail_break": null,
      "contact_string": "",
      "user_string": "",
      "has_log": true,
      "has_description": true,
      "app_version_id": 2,
      "bundle_version": "220",
      "bundle_short_version": "15.4"
    },
    {
      "id": 2981968072,
      "app_id": 129442,
      "crash_reason_id": 30457170,
      "created_at": "2015-03-25T09:02:05Z",
      "updated_at": "2015-03-25T09:02:06Z",
      "oem": "HTC",
      "model": "HTC One dual sim",
      "os_version": "4.2.2",
      "jail_break": null,
      "contact_string": "",
      "user_string": "",
      "has_log": true,
      "has_description": true,
      "app_version_id": 2,
      "bundle_version": "220",
      "bundle_short_version": "15.4"
    },
    {
      "id": 2981978713,
      "app_id": 129442,
      "crash_reason_id": 30457170,
      "created_at": "2015-03-25T09:04:46Z",
      "updated_at": "2015-03-25T09:04:47Z",
      "oem": "HTC",
      "model": "HTC One dual sim",
      "os_version": "4.2.2",
      "jail_break": null,
      "contact_string": "",
      "user_string": "",
      "has_log": true,
      "has_description": true,
      "app_version_id": 2,
      "bundle_version": "220",
      "bundle_short_version": "15.4"
    },
    {
      "id": 2981996642,
      "app_id": 129442,
      "crash_reason_id": 30457170,
      "created_at": "2015-03-25T09:09:09Z",
      "updated_at": "2015-03-25T09:09:12Z",
      "oem": "HTC",
      "model": "HTC One dual sim",
      "os_version": "4.2.2",
      "jail_break": null,
      "contact_string": "",
      "user_string": "",
      "has_log": true,
      "has_description": true,
      "app_version_id": 2,
      "bundle_version": "220",
      "bundle_short_version": "15.4"
    },
    {
      "id": 2988778534,
      "app_id": 129442,
      "crash_reason_id": 30457170,
      "created_at": "2015-03-26T09:55:25Z",
      "updated_at": "2015-03-26T09:55:27Z",
      "oem": "samsung",
      "model": "SAMSUNG-SGH-I337",
      "os_version": "4.2.2",
      "jail_break": null,
      "contact_string": "",
      "user_string": "",
      "has_log": true,
      "has_description": true,
      "app_version_id": 2,
      "bundle_version": "220",
      "bundle_short_version": "15.4"
    },
    {
      "id": 2989360058,
      "app_id": 129442,
      "crash_reason_id": 30457170,
      "created_at": "2015-03-26T12:01:52Z",
      "updated_at": "2015-03-26T12:01:55Z",
      "oem": "samsung",
      "model": "SAMSUNG-SGH-I337",
      "os_version": "4.2.2",
      "jail_break": null,
      "contact_string": "",
      "user_string": "",
      "has_log": true,
      "has_description": true,
      "app_version_id": 2,
      "bundle_version": "220",
      "bundle_short_version": "15.4"
    },
    {
      "id": 3023532659,
      "app_id": 129442,
      "crash_reason_id": 30457170,
      "created_at": "2015-03-31T12:56:06Z",
      "updated_at": "2015-03-31T12:56:09Z",
      "oem": "samsung",
      "model": "SM-G900H",
      "os_version": "4.4.2",
      "jail_break": null,
      "contact_string": "",
      "user_string": "-1",
      "has_log": true,
      "has_description": true,
      "app_version_id": 2,
      "bundle_version": "220",
      "bundle_short_version": "15.4"
    },
    {
      "id": 3062834147,
      "app_id": 129442,
      "crash_reason_id": 30457170,
      "created_at": "2015-04-06T01:29:15Z",
      "updated_at": "2015-04-06T01:29:16Z",
      "oem": "HTC",
      "model": "HTC One dual sim",
      "os_version": "4.2.2",
      "jail_break": null,
      "contact_string": "",
      "user_string": "-1",
      "has_log": true,
      "has_description": true,
      "app_version_id": 2,
      "bundle_version": "220",
      "bundle_short_version": "15.4"
    }
  ],
  "status": "success",
  "current_page": 1,
  "per_page": 25,
  "total_entries": 59,
  "total_pages": 3
}